<?xml version="1.0" encoding="UTF-8"?>
<svg width="13px" height="13px" viewBox="0 0 13 13" version="1.1" xmlns="http://www.w3.org/2000/svg" xmlns:xlink="http://www.w3.org/1999/xlink">
    <title>C85ED825-C9A3-447E-BFEC-DB35A7144C37@1.5x</title>
    <g id="Admin" stroke="none" stroke-width="1" fill="none" fill-rule="evenodd" stroke-linecap="round" stroke-linejoin="round" stroke-opacity="0.6">
        <g id="Jobs-Web-(Admin)-4-1" transform="translate(-245.000000, -272.000000)" stroke="#4A4A4A" stroke-width="1.44">
            <g id="Card" transform="translate(180.000000, 206.000000)">
                <g id="Elements-/-Cards-/-Open-Jobs/-ic" transform="translate(60.000000, 61.000000)">
                    <g id="Asset-4" transform="translate(5.727273, 5.760000)">
                        <line x1="0" y1="0" x2="11.4545455" y2="11.52" id="Path"></line>
                        <line x1="11.4545455" y1="0" x2="0" y2="11.52" id="Path"></line>
                    </g>
                </g>
            </g>
        </g>
    </g>
</svg>